<?xml version="1.0" encoding="UTF-8" standalone="no"?>
<!-- Generator: Adobe Illustrator 16.0.0, SVG Export Plug-In . SVG Version: 6.00 Build 0)  -->

<svg
   xmlns:dc="http://purl.org/dc/elements/1.1/"
   xmlns:cc="http://creativecommons.org/ns#"
   xmlns:rdf="http://www.w3.org/1999/02/22-rdf-syntax-ns#"
   xmlns:svg="http://www.w3.org/2000/svg"
   xmlns="http://www.w3.org/2000/svg"
   xmlns:sodipodi="http://sodipodi.sourceforge.net/DTD/sodipodi-0.dtd"
   xmlns:inkscape="http://www.inkscape.org/namespaces/inkscape"
   version="1.1"
   id="Layer_1"
   x="0px"
   y="0px"
   width="95.269px"
   height="14.667px"
   viewBox="0 0 95.269 14.667"
   enable-background="new 0 0 95.269 14.667"
   xml:space="preserve"
   sodipodi:docname="logo2.svg"
   inkscape:version="0.92.3 (2405546, 2018-03-11)"><metadata
   id="metadata23"><rdf:RDF><cc:Work
       rdf:about=""><dc:format>image/svg+xml</dc:format><dc:type
         rdf:resource="http://purl.org/dc/dcmitype/StillImage" /><dc:title /></cc:Work></rdf:RDF></metadata><defs
   id="defs21" /><sodipodi:namedview
   pagecolor="#ffffff"
   bordercolor="#666666"
   borderopacity="1"
   objecttolerance="10"
   gridtolerance="10"
   guidetolerance="10"
   inkscape:pageopacity="0"
   inkscape:pageshadow="2"
   inkscape:window-width="1213"
   inkscape:window-height="969"
   id="namedview19"
   showgrid="false"
   inkscape:pagecheckerboard="true"
   inkscape:zoom="5.0383652"
   inkscape:cx="16.984061"
   inkscape:cy="7.3334999"
   inkscape:window-x="67"
   inkscape:window-y="27"
   inkscape:window-maximized="1"
   inkscape:current-layer="Layer_1" />
<path
   id="path2"
   d="M 7.8964844,1.2109375 C 7.8879944,1.2377155 7.883449,1.2672038 7.875,1.2929688 7.918589,1.2810888 7.962241,1.2695525 8.0058594,1.2578125 7.9694674,1.2421635 7.9336258,1.2258035 7.8964844,1.2109375 Z M 3.96875,2.1816406 c -6.745e-4,0.00397 0.0024,0.00776 0.00195,0.011719 0.00264,-4.311e-4 0.00517,-0.00152 0.00781,-0.00195 -0.00214,0.00236 -0.0084,-0.017785 -0.00977,-0.00977 z" />
<path
   id="path4"
   d="m 13.068359,7.46875 c -0.07685,0.00987 -0.153615,0.020858 -0.230468,0.03125 -0.0099,0.024915 -0.01897,0.049464 -0.02734,0.074219 0.07572,-0.00839 0.190889,-0.046386 0.257812,-0.0625 6.63e-4,-0.013528 -7e-4,-0.029454 0,-0.042969 z m 2.382813,3.992188 c -0.0157,0.0024 -0.02921,0.0034 -0.04492,0.0059 0.01714,1.81e-4 0.02975,-1.8e-4 0.04687,0 -8.37e-4,-0.0019 -0.0011,-0.004 -0.002,-0.0059 z m 1.464844,3.185546 c -0.0205,8.56e-4 -0.04043,9.98e-4 -0.06055,0.002 0.01979,8.86e-4 0.03868,0.0032 0.05859,0.0039 7.81e-4,-0.0019 0.0012,-0.004 0.002,-0.0059 z" />
<path
   id="path6"
   d="m 31.271484,8.0292969 c -0.0546,0.00478 -0.109436,0.00719 -0.164062,0.011719 -0.0073,0.044819 -0.01021,0.054012 -0.01758,0.099609 0.06047,-0.035717 0.121977,-0.077989 0.18164,-0.1113281 z" />
<path
   id="path8"
   d="m 42.816406,2.1582031 c -0.05093,0.137998 -0.109403,0.3043571 -0.132812,0.3613281 -0.0027,0.00906 -0.0052,0.018233 -0.0078,0.027344 0.07572,0.021478 0.148083,0.05756 0.222657,0.083984 v -0.28125 c -0.04052,-0.059678 -0.06345,-0.1250683 -0.08203,-0.1914063 z M 37.652344,14.658203 c 0.03408,7.09e-4 0.06315,0.0098 0.09766,0.0098 0.02554,0 0.04699,-0.0073 0.07227,-0.0078 -0.05623,-0.0015 -0.113797,0.001 -0.169922,-0.002 z" />
<path
   id="path10"
   d="m 52.853516,3.3300781 c -0.0021,5.903e-4 -0.0057,0.00136 -0.0078,0.00195 -0.02765,0.073268 -0.0615,0.1386483 -0.08398,0.21875 0.03089,-0.076799 0.06023,-0.1438591 0.0918,-0.2207031 z m 7.501953,8.7265629 c -0.145837,2.5e-5 -0.291663,0.0019 -0.4375,0.002 -0.02475,0.03346 -0.04471,0.06847 -0.07031,0.101562 0.08203,0.005 0.164064,0.0087 0.246094,0.01367 0.01763,-0.0077 0.03516,-0.01558 0.05273,-0.02344 0.08133,-0.03637 0.130931,-0.05866 0.208985,-0.09375 z m -9.148438,2.179687 c -0.0054,-0.0075 -0.01309,0.01441 -0.03906,0.07422 -0.114156,0.07066 -0.15207,0.112131 -0.210938,0.162109 h 0.324219 c -0.0439,-0.126519 -0.06591,-0.224683 -0.07422,-0.236328 z" />
<path
   id="path12"
   d="m 66.421875,12.066406 c 0.06064,0.07794 0.115685,0.159238 0.164063,0.244141 0.0567,-0.0073 0.113238,-0.01598 0.169921,-0.02344 -0.108075,-0.06295 -0.208628,-0.136806 -0.302734,-0.220703 -0.01042,-2e-5 -0.02083,2e-5 -0.03125,0 z" />
<path
   id="path14"
   d="m 77.798828,12.777344 c -0.05073,0.01257 -0.101624,0.02454 -0.152344,0.03711 0.04687,5.26e-4 0.09375,-4.05e-4 0.140625,0 z" />

<text
   xml:space="preserve"
   style="font-style:normal;font-weight:normal;font-size:12.59507084px;line-height:1.25;font-family:sans-serif;letter-spacing:0px;word-spacing:0px;fill:#000000;fill-opacity:1;stroke:none;stroke-width:0.31487677"
   x="0.28613976"
   y="9.6532001"
   id="text128"
   transform="scale(0.66266175,1.5090655)"><tspan
     sodipodi:role="line"
     id="tspan126"
     x="0.28613976"
     y="9.6532001"
     style="stroke-width:0.31487677;word-spacing:0.25px">CAMPINAPOLIS AGORA</tspan></text>

</svg>